[{{ range $index, $page := .Site.Pages }}
    {{- if ne $page.Type "json" -}}
    {{- if and $index (gt $index 0) -}},{{- end -}}
    {
        "uri": "{{ $page.Permalink }}",
        "title": "{{ htmlEscape $page.Title}}",
        "content": {{ $page.Plain | jsonify }},
        "tags": [{{ range $tindex, $tag := $page.Params.tags }}{{ if $tindex }}, {{ end }}"{{ $tag| htmlEscape }}"{{ end }}]
}
    {{- end -}}
    {{- end -}}]
